{
   "language":"en",
   "message":"EMERGENCY NOTIFICATION",
   "to":"Jiayi.chen@ucstage.onmicrosoft.com",
   "attachments":{
      "body":[
        {
            "type": "TextBlock",
            "text": "ROLL-OFF DATE REQUEST"
        },
        {
           "type":"Image",
           "url":"https://evidencebasedbirth.com/wp-content/uploads/2017/06/Facebook_-Eating-Date-Fruit-to-Start-Labor-1080x628.png"
        },
        {
            "type": "TextBlock",
            "text": "Could you please enter the correct date."
        },
        {
                    "type": "Input.Date",
                    "id": "date",
                    "value": "14/02/20"
                },
        {
             "type": "TextBlock",
             "text": "Please enter the time you'll return your laptop."
        },
                {
                    "type": "Input.Time",
                    "id": "time",
                    "value": "12:30"
                }
    ],
    "actions":[
       {
          "type":"Action.Submit",
          "title":"Submit",
          "data":{
             "msteams":{
                "type":"messageBack",
                "displayText":"Thanks!",
                "text": "post tube"
             }
          }
       }
     ],
    "$schema": "http://adaptivecards.io/schemas/adaptive-card.json"
  }
}
